# ACTS Test Suite Generation: Thu Apr 18 11:08:21 CEST 2024
#  '*' represents don't care value 
# Degree of interaction coverage: 2
# Number of parameters: 5
# Maximum number of values per parameter: 3
# Number of configurations: 9
registrace,jmeno_prijmeni,destinace,datum_narozeni,sleva
false,NULL,mimo_EU,DD.MM.YYYY,duchodce
true,NULL,v_EU,MM/DD/YYYY,slevovy_kupon
false,NULL,v_EU,YYYY-MM-DD,student
true,Pismena,mimo_EU,DD.MM.YYYY,slevovy_kupon
false,Pismena,mimo_EU,MM/DD/YYYY,student
true,Pismena,v_EU,YYYY-MM-DD,duchodce
true,Zvlastni_znaky,v_EU,DD.MM.YYYY,student
false,Zvlastni_znaky,mimo_EU,MM/DD/YYYY,duchodce
false,Zvlastni_znaky,mimo_EU,YYYY-MM-DD,slevovy_kupon
